Date: 01-01-2007
CPU   	 3    7098    22394
Monitor  2    6500    13000
Mouse    20   300     6000
Total: 41394
---------------------------------------------------
Date: 04-01-2007
Keyboard     10    700    5000
Ethernet     48    900    43200
Total: 51200
---------------------------------------------------